[
  {
    "guid": 1,
    "name": "阿尔巴尼亚",
    "language": "Simplified"
  },
  {
    "guid": 2,
    "name": "阿尔及利亚",
    "language": "Simplified"
  },
  {
    "guid": 3,
    "name": "阿根廷",
    "language": "Simplified"
  },
  {
    "guid": 4,
    "name": "阿拉伯联合酋长国",
    "language": "Simplified"
  },
  {
    "guid": 5,
    "name": "阿鲁巴",
    "language": "Simplified"
  },
  {
    "guid": 6,
    "name": "阿曼",
    "language": "Simplified"
  },
  {
    "guid": 7,
    "name": "阿塞拜疆",
    "language": "Simplified"
  },
  {
    "guid": 8,
    "name": "埃及",
    "language": "Simplified"
  },
  {
    "guid": 9,
    "name": "埃塞俄比亚",
    "language": "Simplified"
  },
  {
    "guid": 10,
    "name": "爱尔兰",
    "language": "Simplified"
  },
  {
    "guid": 11,
    "name": "爱沙尼亚",
    "language": "Simplified"
  },
  {
    "guid": 12,
    "name": "安道尔",
    "language": "Simplified"
  },
  {
    "guid": 13,
    "name": "安哥拉",
    "language": "Simplified"
  },
  {
    "guid": 14,
    "name": "安提瓜岛和巴布达",
    "language": "Simplified"
  },
  {
    "guid": 15,
    "name": "奥地利",
    "language": "Simplified"
  },
  {
    "guid": 16,
    "name": "澳大利亚",
    "language": "Simplified"
  },
  {
    "guid": 17,
    "name": "巴巴多斯岛",
    "language": "Simplified"
  },
  {
    "guid": 18,
    "name": "巴布亚新几内亚",
    "language": "Simplified"
  },
  {
    "guid": 19,
    "name": "巴哈马",
    "language": "Simplified"
  },
  {
    "guid": 20,
    "name": "巴基斯坦",
    "language": "Simplified"
  },
  {
    "guid": 21,
    "name": "巴林",
    "language": "Simplified"
  },
  {
    "guid": 22,
    "name": "巴拿马",
    "language": "Simplified"
  },
  {
    "guid": 23,
    "name": "巴西",
    "language": "Simplified"
  },
  {
    "guid": 24,
    "name": "白俄罗斯",
    "language": "Simplified"
  },
  {
    "guid": 25,
    "name": "百慕大",
    "language": "Simplified"
  },
  {
    "guid": 26,
    "name": "保加利亚",
    "language": "Simplified"
  },
  {
    "guid": 27,
    "name": "北马里亚纳群岛",
    "language": "Simplified"
  },
  {
    "guid": 28,
    "name": "贝宁",
    "language": "Simplified"
  },
  {
    "guid": 29,
    "name": "比利时",
    "language": "Simplified"
  },
  {
    "guid": 30,
    "name": "冰岛",
    "language": "Simplified"
  },
  {
    "guid": 31,
    "name": "波多黎各",
    "language": "Simplified"
  },
  {
    "guid": 32,
    "name": "波黑",
    "language": "Simplified"
  },
  {
    "guid": 33,
    "name": "波兰",
    "language": "Simplified"
  },
  {
    "guid": 34,
    "name": "玻利维亚",
    "language": "Simplified"
  },
  {
    "guid": 35,
    "name": "博茨瓦纳",
    "language": "Simplified"
  },
  {
    "guid": 36,
    "name": "不丹",
    "language": "Simplified"
  },
  {
    "guid": 37,
    "name": "布隆迪",
    "language": "Simplified"
  },
  {
    "guid": 38,
    "name": "朝鲜",
    "language": "Simplified"
  },
  {
    "guid": 39,
    "name": "丹麦",
    "language": "Simplified"
  },
  {
    "guid": 40,
    "name": "德国",
    "language": "Simplified"
  },
  {
    "guid": 41,
    "name": "多米尼加共和国",
    "language": "Simplified"
  },
  {
    "guid": 42,
    "name": "俄罗斯",
    "language": "Simplified"
  },
  {
    "guid": 43,
    "name": "厄瓜多尔",
    "language": "Simplified"
  },
  {
    "guid": 44,
    "name": "厄立特里亚",
    "language": "Simplified"
  },
  {
    "guid": 45,
    "name": "法国",
    "language": "Simplified"
  },
  {
    "guid": 46,
    "name": "菲律宾",
    "language": "Simplified"
  },
  {
    "guid": 47,
    "name": "斐济",
    "language": "Simplified"
  },
  {
    "guid": 48,
    "name": "芬兰",
    "language": "Simplified"
  },
  {
    "guid": 49,
    "name": "冈比亚",
    "language": "Simplified"
  },
  {
    "guid": 50,
    "name": "刚果民主共和国",
    "language": "Simplified"
  },
  {
    "guid": 51,
    "name": "哥伦比亚",
    "language": "Simplified"
  },
  {
    "guid": 52,
    "name": "哥斯达黎加",
    "language": "Simplified"
  },
  {
    "guid": 53,
    "name": "格恩西岛",
    "language": "Simplified"
  },
  {
    "guid": 54,
    "name": "格林纳达",
    "language": "Simplified"
  },
  {
    "guid": 55,
    "name": "格陵兰",
    "language": "Simplified"
  },
  {
    "guid": 56,
    "name": "古巴",
    "language": "Simplified"
  },
  {
    "guid": 57,
    "name": "关岛",
    "language": "Simplified"
  },
  {
    "guid": 58,
    "name": "国家",
    "language": "Simplified"
  },
  {
    "guid": 59,
    "name": "哈萨克斯坦",
    "language": "Simplified"
  },
  {
    "guid": 60,
    "name": "海地",
    "language": "Simplified"
  },
  {
    "guid": 61,
    "name": "韩国",
    "language": "Simplified"
  },
  {
    "guid": 62,
    "name": "荷兰",
    "language": "Simplified"
  },
  {
    "guid": 63,
    "name": "黑山共和国",
    "language": "Simplified"
  },
  {
    "guid": 64,
    "name": "洪都拉斯",
    "language": "Simplified"
  },
  {
    "guid": 65,
    "name": "基里巴斯",
    "language": "Simplified"
  },
  {
    "guid": 66,
    "name": "吉布提",
    "language": "Simplified"
  },
  {
    "guid": 67,
    "name": "吉尔吉斯斯坦",
    "language": "Simplified"
  },
  {
    "guid": 68,
    "name": "加拿大",
    "language": "Simplified"
  },
  {
    "guid": 69,
    "name": "加纳",
    "language": "Simplified"
  },
  {
    "guid": 70,
    "name": "柬埔寨",
    "language": "Simplified"
  },
  {
    "guid": 71,
    "name": "捷克共和国",
    "language": "Simplified"
  },
  {
    "guid": 72,
    "name": "喀麦隆",
    "language": "Simplified"
  },
  {
    "guid": 73,
    "name": "卡塔尔",
    "language": "Simplified"
  },
  {
    "guid": 74,
    "name": "开曼群岛",
    "language": "Simplified"
  },
  {
    "guid": 75,
    "name": "科比里亚",
    "language": "Simplified"
  },
  {
    "guid": 76,
    "name": "科威特",
    "language": "Simplified"
  },
  {
    "guid": 77,
    "name": "克罗地亚",
    "language": "Simplified"
  },
  {
    "guid": 78,
    "name": "肯尼亚",
    "language": "Simplified"
  },
  {
    "guid": 79,
    "name": "拉脱维亚",
    "language": "Simplified"
  },
  {
    "guid": 80,
    "name": "莱索托",
    "language": "Simplified"
  },
  {
    "guid": 81,
    "name": "老挝",
    "language": "Simplified"
  },
  {
    "guid": 82,
    "name": "黎巴嫩",
    "language": "Simplified"
  },
  {
    "guid": 83,
    "name": "立陶宛",
    "language": "Simplified"
  },
  {
    "guid": 84,
    "name": "利比亚",
    "language": "Simplified"
  },
  {
    "guid": 85,
    "name": "列支敦士登",
    "language": "Simplified"
  },
  {
    "guid": 86,
    "name": "留尼旺岛",
    "language": "Simplified"
  },
  {
    "guid": 87,
    "name": "卢森堡",
    "language": "Simplified"
  },
  {
    "guid": 88,
    "name": "卢旺达",
    "language": "Simplified"
  },
  {
    "guid": 89,
    "name": "罗马尼亚",
    "language": "Simplified"
  },
  {
    "guid": 90,
    "name": "马达加斯加",
    "language": "Simplified"
  },
  {
    "guid": 91,
    "name": "马尔代夫",
    "language": "Simplified"
  },
  {
    "guid": 92,
    "name": "马拉维",
    "language": "Simplified"
  },
  {
    "guid": 93,
    "name": "马来西亚",
    "language": "Simplified"
  },
  {
    "guid": 94,
    "name": "马其顿",
    "language": "Simplified"
  },
  {
    "guid": 95,
    "name": "马绍尔群岛",
    "language": "Simplified"
  },
  {
    "guid": 96,
    "name": "毛里求斯",
    "language": "Simplified"
  },
  {
    "guid": 97,
    "name": "毛里塔尼亚",
    "language": "Simplified"
  },
  {
    "guid": 98,
    "name": "美国",
    "language": "Simplified"
  },
  {
    "guid": 99,
    "name": "蒙古",
    "language": "Simplified"
  },
  {
    "guid": 100,
    "name": "孟加拉",
    "language": "Simplified"
  },
  {
    "guid": 101,
    "name": "秘鲁",
    "language": "Simplified"
  },
  {
    "guid": 102,
    "name": "缅甸",
    "language": "Simplified"
  },
  {
    "guid": 103,
    "name": "摩尔多瓦",
    "language": "Simplified"
  },
  {
    "guid": 104,
    "name": "摩洛哥",
    "language": "Simplified"
  },
  {
    "guid": 105,
    "name": "摩纳哥",
    "language": "Simplified"
  },
  {
    "guid": 106,
    "name": "莫桑比克",
    "language": "Simplified"
  },
  {
    "guid": 107,
    "name": "墨西哥",
    "language": "Simplified"
  },
  {
    "guid": 108,
    "name": "纳米比亚",
    "language": "Simplified"
  },
  {
    "guid": 109,
    "name": "南非",
    "language": "Simplified"
  },
  {
    "guid": 110,
    "name": "尼泊尔",
    "language": "Simplified"
  },
  {
    "guid": 111,
    "name": "尼加拉瓜",
    "language": "Simplified"
  },
  {
    "guid": 112,
    "name": "尼日利亚",
    "language": "Simplified"
  },
  {
    "guid": 113,
    "name": "挪威",
    "language": "Simplified"
  },
  {
    "guid": 114,
    "name": "帕劳群岛",
    "language": "Simplified"
  },
  {
    "guid": 115,
    "name": "葡萄牙",
    "language": "Simplified"
  },
  {
    "guid": 116,
    "name": "乔治亚",
    "language": "Simplified"
  },
  {
    "guid": 117,
    "name": "日本",
    "language": "Simplified"
  },
  {
    "guid": 118,
    "name": "瑞典",
    "language": "Simplified"
  },
  {
    "guid": 119,
    "name": "瑞士",
    "language": "Simplified"
  },
  {
    "guid": 120,
    "name": "萨摩亚",
    "language": "Simplified"
  },
  {
    "guid": 121,
    "name": "塞尔维亚",
    "language": "Simplified"
  },
  {
    "guid": 122,
    "name": "塞拉利昂",
    "language": "Simplified"
  },
  {
    "guid": 123,
    "name": "塞内加尔",
    "language": "Simplified"
  },
  {
    "guid": 124,
    "name": "塞舌尔",
    "language": "Simplified"
  },
  {
    "guid": 125,
    "name": "沙特阿拉伯",
    "language": "Simplified"
  },
  {
    "guid": 126,
    "name": "圣基茨和尼维斯",
    "language": "Simplified"
  },
  {
    "guid": 127,
    "name": "圣马力诺",
    "language": "Simplified"
  },
  {
    "guid": 128,
    "name": "斯里兰卡",
    "language": "Simplified"
  },
  {
    "guid": 129,
    "name": "斯洛伐克",
    "language": "Simplified"
  },
  {
    "guid": 130,
    "name": "斯洛文尼亚",
    "language": "Simplified"
  },
  {
    "guid": 131,
    "name": "斯威士兰",
    "language": "Simplified"
  },
  {
    "guid": 132,
    "name": "苏丹",
    "language": "Simplified"
  },
  {
    "guid": 133,
    "name": "苏里南",
    "language": "Simplified"
  },
  {
    "guid": 134,
    "name": "所罗门群岛",
    "language": "Simplified"
  },
  {
    "guid": 135,
    "name": "塔吉克斯坦",
    "language": "Simplified"
  },
  {
    "guid": 136,
    "name": "泰国",
    "language": "Simplified"
  },
  {
    "guid": 137,
    "name": "坦桑尼亚",
    "language": "Simplified"
  },
  {
    "guid": 138,
    "name": "汤加",
    "language": "Simplified"
  },
  {
    "guid": 139,
    "name": "特立尼达和多巴哥",
    "language": "Simplified"
  },
  {
    "guid": 140,
    "name": "土耳其",
    "language": "Simplified"
  },
  {
    "guid": 141,
    "name": "瓦努阿图",
    "language": "Simplified"
  },
  {
    "guid": 142,
    "name": "危地马拉",
    "language": "Simplified"
  },
  {
    "guid": 143,
    "name": "委内瑞拉",
    "language": "Simplified"
  },
  {
    "guid": 144,
    "name": "文莱",
    "language": "Simplified"
  },
  {
    "guid": 145,
    "name": "乌干达",
    "language": "Simplified"
  },
  {
    "guid": 146,
    "name": "乌克兰",
    "language": "Simplified"
  },
  {
    "guid": 147,
    "name": "乌拉圭",
    "language": "Simplified"
  },
  {
    "guid": 148,
    "name": "乌兹别克斯坦",
    "language": "Simplified"
  },
  {
    "guid": 149,
    "name": "西班牙",
    "language": "Simplified"
  },
  {
    "guid": 150,
    "name": "希腊",
    "language": "Simplified"
  },
  {
    "guid": 151,
    "name": "新加坡",
    "language": "Simplified"
  },
  {
    "guid": 152,
    "name": "新喀里多尼亚",
    "language": "Simplified"
  },
  {
    "guid": 153,
    "name": "新西兰",
    "language": "Simplified"
  },
  {
    "guid": 154,
    "name": "匈牙利",
    "language": "Simplified"
  },
  {
    "guid": 155,
    "name": "牙买加",
    "language": "Simplified"
  },
  {
    "guid": 156,
    "name": "亚美尼亚",
    "language": "Simplified"
  },
  {
    "guid": 157,
    "name": "也门",
    "language": "Simplified"
  },
  {
    "guid": 158,
    "name": "伊拉克",
    "language": "Simplified"
  },
  {
    "guid": 159,
    "name": "伊朗",
    "language": "Simplified"
  },
  {
    "guid": 160,
    "name": "以色列",
    "language": "Simplified"
  },
  {
    "guid": 161,
    "name": "意大利",
    "language": "Simplified"
  },
  {
    "guid": 162,
    "name": "印度",
    "language": "Simplified"
  },
  {
    "guid": 163,
    "name": "印度尼西亚",
    "language": "Simplified"
  },
  {
    "guid": 164,
    "name": "英国",
    "language": "Simplified"
  },
  {
    "guid": 165,
    "name": "约旦",
    "language": "Simplified"
  },
  {
    "guid": 166,
    "name": "越南",
    "language": "Simplified"
  },
  {
    "guid": 167,
    "name": "赞比亚",
    "language": "Simplified"
  },
  {
    "guid": 168,
    "name": "泽西岛",
    "language": "Simplified"
  },
  {
    "guid": 169,
    "name": "直布罗陀",
    "language": "Simplified"
  },
  {
    "guid": 170,
    "name": "智利",
    "language": "Simplified"
  },
  {
    "guid": 171,
    "name": "中非共和国",
    "language": "Simplified"
  },
  {
    "guid": 172,
    "name": "中国",
    "language": "Simplified"
  },
  {
    "guid": 173,
    "name": "中国澳门",
    "language": "Simplified"
  },
  {
    "guid": 174,
    "name": "中国台湾",
    "language": "Simplified"
  },
  {
    "guid": 175,
    "name": "中国香港",
    "language": "Simplified"
  }
]